…
# Define the subset of columns that will be needed in the analyses.
#   The fewer columns that are exported, the fewer things that can break downstream.
ds_slim <-
  ds %>%
  # dplyr::slice(1:100) %>%
  dplyr::select(!!columns_to_write) %>%
  dplyr::mutate_if(is.logical, as.integer)       # Some databases & drivers need 0/1 instead of FALSE/TRUE.
ds_slim
```

```
## # A tibble: 32 x 11
##    car_id model_name miles_per_gallon displacement_in… cylinder_count
##     <int> <chr>                 <dbl>            <dbl>          <dbl>
##  1      1 Mazda RX4              21               160               6
##  2      2 Mazda RX4…             21               160               6
##  3      3 Datsun 710             22.8             108               4
##  4      4 Hornet 4 …             21.4             258               6
##  5      5 Hornet Sp…             18.7             360               8
##  6      6 Valiant                18.1             225               6
##  7      7 Duster 360             14.3             360               8
##  8      8 Merc 240D              24.4             147.              4
##  9      9 Merc 230               22.8             141.              4
## 10     10 Merc 280               19.2             168.              6
## # … with 22 more rows, and 6 more variables: horsepower <dbl>,
## #   quarter_mile_sec <dbl>, forward_gear_count <dbl>,
## #   carburetor_count <dbl>, weight_gear_z <dbl>,
## #   weight_gear_z_above_1 <int>
```
…
