…
rm(path_in_oklahoma, path_in_tulsa, path_in_rural, path_county)
rm(col_types_oklahoma, col_types_tulsa, col_types_rural, col_types_county)

# Print the first few rows of each table, especially if you're stitching with knitr (see first line of this file).
#   If you print, make sure that the datasets don't contain any PHI.
#   A normal `data.frame` will print all rows.  But `readr::read_csv()` returns a `tibble::tibble`,
#   which prints only the first 10 rows by default.  It also lists the data type of each column.
ds_nurse_month_oklahoma

## # A tibble: 1,480 x 7
##    Employee..  Year Month   FTE FMLA.Hours Training.Hours          Name
##         <int> <int> <int> <dbl>      <int>          <int>         <chr>
##  1          1  2009     1     1         NA             NA Akilah Amyx  
##  2          1  2009     2     1         NA             NA Akilah Amyx  
##  3          1  2009     3     1         NA             NA Akilah Amyx  
##  4          1  2009     4     1         NA             NA Akilah Amyx  
##  5          1  2009     5     1         NA             NA Akilah Amyx  
##  6          1  2009     6     1         NA             NA Akilah Amyx  
##  7          1  2009     7     1         NA             NA Akilah Amyx  
##  8          1  2009     8     1         NA             32 Akilah Amyx  
##  9          1  2009     9     1         NA             NA Akilah Amyx  
## 10          1  2009    10     1         NA             NA Akilah Amyx  
## # ... with 1,470 more rows

ds_month_tulsa

## # A tibble: 80 x 3
##         Month FteSum FmlaSum
##        <date>  <dbl>   <int>
##  1 2009-01-15   25.5      NA
##  2 2009-02-15   26.5      NA
##  3 2009-03-15   26.5     274
##  4 2009-04-15   26.5      NA
##  5 2009-05-15   25.5     112
##  6 2009-06-15   25.5      NA
##  7 2009-07-15   25.5      NA
##  8 2009-08-15   24.5      51
##  9 2009-09-15   23.5      NA
## 10 2009-10-15   23.5      NA
## # ... with 70 more rows

ds_nurse_month_rural

## # A tibble: 4,726 x 6
##     HOME_COUNTY   FTE  PERIOD EMPLOYEEID REGIONID            Name
##           <chr> <chr>   <chr>      <int>    <int>           <chr>
##  1 Pottawatomie 100 % 06/2012         46       49 Cheree Crites  
##  2 Pottawatomie 100 % 08/2012         46       49 Cheree Crites  
##  3 Pottawatomie 100 % 09/2012         46       49 Cheree Crites  
##  4 Pottawatomie 100 % 10/2012         46       49 Cheree Crites  
##  5 Pottawatomie 100 % 12/2012         46       49 Cheree Crites  
##  6 Pottawatomie 100 % 01/2013         46       49 Cheree Crites  
##  7 Pottawatomie 100 % 02/2013         46       49 Cheree Crites  
##  8     Oklahoma 100 % 08/2012         47       44 Cheryll Canez  
##  9     Oklahoma 100 % 09/2012         47       44 Cheryll Canez  
## 10     Oklahoma 100 % 10/2012         47       44 Cheryll Canez  
## # ... with 4,716 more rows

ds_county

## # A tibble: 77 x 13
##    CountyID CountyName GeoID FipsCode FundingC1 FundingOcap
##       <int>      <chr> <int>    <int>     <int>       <int>
##  1        1      Adair 40001        1         1           0
##  2        2    Alfalfa 40003        3         0           0
##  3        3      Atoka 40005        5         1           0
##  4        4     Beaver 40007        7         0           0
##  5        5    Beckham 40009        9         1           0
##  6        6     Blaine 40011       11         1           0
##  7        7      Bryan 40013       13         1           0
##  8        8      Caddo 40015       15         1           0
##  9        9   Canadian 40017       17         1           0
## 10       10     Carter 40019       19         1           0
## # ... with 67 more rows, and 7 more variables: C1LeadNurseRegion <int>,
## #   C1LeadNurseName <chr>, Urban <int>, LabelLongitude <dbl>,
## #   LabelLatitude <dbl>, MiechvEvaluation <int>, MiechvFormula <int>
…
    , "training_hours"            = "`Training.Hours`"      # Used to be "Training Hours" before sanitizing.
  ) %>%
  dplyr::mutate(
    county_id         = ds_county[ds_county$county_name=="Oklahoma", ]$county_id,        # Dynamically determine county ID.
    month             = as.Date(ISOdate(year, month, default_day_of_month)),             # Combine fields for one date.
    # fmla_hours      = dplyr::if_else(!is.na(fmla_hours), fmla_hours, 0L),              # Set missing values to zero.
    training_hours    = dplyr::coalesce(training_hours, 0L)                              # Set missing values to zero.
    # training_hours  = dplyr::if_else(!is.na(training_hours), training_hours, 0L)       # Set missing values to zero.
  ) %>%
  dplyr::select(      # Drop unecessary variables (ie, defensive programming)
    -year
  )
ds_nurse_month_oklahoma

## # A tibble: 1,480 x 5
##         month   fte fmla_hours training_hours county_id
##        <date> <dbl>      <int>          <int>     <int>
##  1 2009-01-15     1         NA              0        55
##  2 2009-02-15     1         NA              0        55
##  3 2009-03-15     1         NA              0        55
##  4 2009-04-15     1         NA              0        55
##  5 2009-05-15     1         NA              0        55
##  6 2009-06-15     1         NA              0        55
##  7 2009-07-15     1         NA              0        55
##  8 2009-08-15     1         NA             32        55
##  9 2009-09-15     1         NA              0        55
## 10 2009-10-15     1         NA              0        55
## # ... with 1,470 more rows

# Collapse across nurses to create one record per month for Oklahoma County.
ds_month_oklahoma <- ds_nurse_month_oklahoma %>%
  dplyr::group_by(county_id, month) %>%                  # Split by County & month into sub-datasets
  dplyr::summarize(                                      # Aggregate/summarize within sub-datasets
    fte                = sum(fte, na.rm=T),
    # fmla_hours       = sum(fmla_hours, na.rm=T)
    fte_approximated   = FALSE                           # This variable helps the later union query.
  ) %>%
  dplyr::ungroup()                                       # Unecessary b/c of `summarize()`, but I like the habit.
ds_month_oklahoma

## # A tibble: 81 x 4
##    county_id      month   fte fte_approximated
##        <int>     <date> <dbl>            <lgl>
##  1        55 2009-01-15 17.00            FALSE
##  2        55 2009-02-15 17.00            FALSE
##  3        55 2009-03-15 17.00            FALSE
##  4        55 2009-04-15 17.50            FALSE
##  5        55 2009-05-15 18.76            FALSE
##  6        55 2009-06-15 18.50            FALSE
##  7        55 2009-07-15 18.00            FALSE
##  8        55 2009-08-15 18.50            FALSE
##  9        55 2009-09-15 19.00            FALSE
## 10        55 2009-10-15 18.76            FALSE
## # ... with 71 more rows
…
ds_month_tulsa <- ds_month_tulsa %>%
  dplyr::select_(
    "month"             = "`Month`"
    , "fte"             = "`FteSum`"
    , "fmla_sum"        = "`FmlaSum`"
  ) %>%
  dplyr::mutate(
    county_id           = ds_county[ds_county$county_name=="Tulsa", ]$county_id,  #Dynamically determine county ID
    #fmla_hours         = ifelse(!is.na(fmla_hours), fmla_hours, 0.0)
    fte_approximated    = FALSE
  )  %>%
  dplyr::select(county_id, month, fte, fte_approximated)
ds_month_tulsa

## # A tibble: 80 x 4
##    county_id      month   fte fte_approximated
##        <int>     <date> <dbl>            <lgl>
##  1        72 2009-01-15  25.5            FALSE
##  2        72 2009-02-15  26.5            FALSE
##  3        72 2009-03-15  26.5            FALSE
##  4        72 2009-04-15  26.5            FALSE
##  5        72 2009-05-15  25.5            FALSE
##  6        72 2009-06-15  25.5            FALSE
##  7        72 2009-07-15  25.5            FALSE
##  8        72 2009-08-15  24.5            FALSE
##  9        72 2009-09-15  23.5            FALSE
## 10        72 2009-10-15  23.5            FALSE
## # ... with 70 more rows
…
    fte_string  = gsub("^(\\d{1,3})\\s*%$", "\\1", fte_percent),                           # Extract digits before the '%' sign.
    fte         = .01 * as.numeric(ifelse(nchar(fte_string)==0L, 0, fte_string)),
    county_name = dplyr::recode(county_name, `Cimmarron`='Cimarron', `Leflore`='Le Flore') # Or consider `car::recode()`.
  ) %>%
  dplyr::arrange(county_name, month, name_full) %>%
  dplyr::select(
    -fte_percent,
    -fte_string
  ) %>%
  dplyr::left_join(
    ds_county[, c("county_id", "county_name")], by="county_name"
  )
ds_nurse_month_rural

## # A tibble: 3,248 x 5
##    county_name      month          name_full   fte county_id
##          <chr>     <date>              <chr> <dbl>     <int>
##  1       Adair 2012-06-15      Hilda Hypes     1.0         1
##  2       Adair 2012-08-15      Hilda Hypes     1.0         1
##  3       Adair 2012-09-15      Hilda Hypes     0.5         1
##  4       Adair 2012-10-15      Hilda Hypes     1.0         1
##  5       Adair 2012-12-15      Hilda Hypes     1.0         1
##  6       Adair 2013-01-15      Hilda Hypes     1.0         1
##  7       Adair 2013-02-15      Hilda Hypes     1.0         1
##  8       Adair 2013-03-15      Hilda Hypes     0.5         1
##  9       Adair 2013-06-15      Hilda Hypes     1.0         1
## 10       Adair 2015-06-15 Franchesca Futch     1.0         1
## # ... with 3,238 more rows
# table(ds_nurse_month_rural$county_id, useNA="always")
# table(ds_nurse_month_rural$county_name, useNA="always")

# Collapse across nurses to create one record per month per county.
ds_month_rural <- ds_nurse_month_rural %>%
  dplyr::group_by(county_id, month) %>%
  dplyr::summarize(
    fte                 = sum(fte, na.rm=TRUE),
    # fmla_hours        = sum(fmla_hours, na.rm=TRUE)
    fte_approximated    = FALSE
  ) %>%
  dplyr::ungroup()
ds_month_rural

## # A tibble: 1,784 x 4
##    county_id      month   fte fte_approximated
##        <int>     <date> <dbl>            <lgl>
##  1         1 2012-06-15   1.0            FALSE
##  2         1 2012-08-15   1.0            FALSE
##  3         1 2012-09-15   0.5            FALSE
##  4         1 2012-10-15   1.0            FALSE
##  5         1 2012-12-15   1.0            FALSE
##  6         1 2013-01-15   1.0            FALSE
##  7         1 2013-02-15   1.0            FALSE
##  8         1 2013-03-15   0.5            FALSE
##  9         1 2013-06-15   1.0            FALSE
## 10         1 2015-06-15   1.0            FALSE
## # ... with 1,774 more rows
…
  dplyr::mutate(
    county_month_id             = seq_len(n()), # Add the primary key
    fte                         = dplyr::coalesce(fte, 0),
    month_missing               = is.na(fte_approximated),
    fte_approximated            = month_missing & (month %in% months_rural_not_collected),
    fte_rolling_median_11_month = zoo::rollmedian(x=fte, 11, na.pad=T, align="right")
  ) %>%
  dplyr::group_by(county_id) %>%               # Group by county.
  dplyr::mutate(
    county_any_missing  = any(month_missing)     # Determine if a county is missing any month
  ) %>%
  dplyr::ungroup()
ds

## # A tibble: 3,080 x 10
##    county_id      month   fte fte_approximated county_name region_id
##        <int>     <date> <dbl>            <lgl>       <chr>     <int>
##  1         1 2012-06-15   1.0            FALSE       Adair        11
##  2         1 2012-07-15   0.0             TRUE       Adair        11
##  3         1 2012-08-15   1.0            FALSE       Adair        11
##  4         1 2012-09-15   0.5            FALSE       Adair        11
##  5         1 2012-10-15   1.0            FALSE       Adair        11
##  6         1 2012-11-15   0.0             TRUE       Adair        11
##  7         1 2012-12-15   1.0            FALSE       Adair        11
##  8         1 2013-01-15   1.0            FALSE       Adair        11
##  9         1 2013-02-15   1.0            FALSE       Adair        11
## 10         1 2013-03-15   0.5            FALSE       Adair        11
## # ... with 3,070 more rows, and 4 more variables: county_month_id <int>,
## #   month_missing <lgl>, fte_rolling_median_11_month <dbl>,
## #   county_any_missing <lgl>
…
    # This statement extrapolates missing FTE values, which occurs when the first/last few months are missing.
    if( mean(ds_county_approx$fte, na.rm=T) >= threshold_mean_fte_t_fill_in ) {
      ds_county_approx$fte_approximated <- (ds_county_approx$fte==0)
      ds_county_approx$fte              <- ifelse(ds_county_approx$fte==0, ds_county_approx$fte_rolling_median_11_month, ds_county_approx$fte)
    }

    # Overwrite selected values in the real dataset
    ds[ds$county_id==id, ]$fte              <- ds_county_approx$fte
    ds[ds$county_id==id, ]$fte_approximated <- ds_county_approx$fte_approximated
  }
}
ds

## # A tibble: 3,080 x 10
##    county_id      month   fte fte_approximated county_name region_id
##        <int>     <date> <dbl>            <lgl>       <chr>     <int>
##  1         1 2012-06-15   1.0            FALSE       Adair        11
##  2         1 2012-07-15   1.0             TRUE       Adair        11
##  3         1 2012-08-15   1.0            FALSE       Adair        11
##  4         1 2012-09-15   0.5            FALSE       Adair        11
##  5         1 2012-10-15   1.0            FALSE       Adair        11
##  6         1 2012-11-15   1.0             TRUE       Adair        11
##  7         1 2012-12-15   1.0            FALSE       Adair        11
##  8         1 2013-01-15   1.0            FALSE       Adair        11
##  9         1 2013-02-15   1.0            FALSE       Adair        11
## 10         1 2013-03-15   0.5            FALSE       Adair        11
## # ... with 3,070 more rows, and 4 more variables: county_month_id <int>,
## #   month_missing <lgl>, fte_rolling_median_11_month <dbl>,
## #   county_any_missing <lgl>
…
# dput(colnames(ds)) # Print colnames for line below.
columns_to_write <- c(
  "county_month_id", "county_id",
  "month", "fte", "fte_approximated",
  "region_id"
)
ds_slim <- ds %>%
  dplyr::select_(.dots=columns_to_write) %>%
  # dplyr::slice(1:100) %>%
  dplyr::mutate(
    fte_approximated <- as.integer(fte_approximated)
  )
ds_slim

## # A tibble: 3,080 x 7
##    county_month_id county_id      month   fte fte_approximated region_id
##              <int>     <int>     <date> <dbl>            <lgl>     <int>
##  1               1         1 2012-06-15   1.0            FALSE        11
##  2               2         1 2012-07-15   1.0             TRUE        11
##  3               3         1 2012-08-15   1.0            FALSE        11
##  4               4         1 2012-09-15   0.5            FALSE        11
##  5               5         1 2012-10-15   1.0            FALSE        11
##  6               6         1 2012-11-15   1.0             TRUE        11
##  7               7         1 2012-12-15   1.0            FALSE        11
##  8               8         1 2013-01-15   1.0            FALSE        11
##  9               9         1 2013-02-15   1.0            FALSE        11
## 10              10         1 2013-03-15   0.5            FALSE        11
## # ... with 3,070 more rows, and 1 more variables: `fte_approximated <-
## #   as.integer(fte_approximated)` <int>
…
